Correlate Fire Weather Index and Burned Area — correlate_bushfire • bushfire
…
    Examples

data(bushfire)

# Overall correlation
correlate_bushfire(bushfire)
#> # A tibble: 1 × 2
#>   metric  correlation
#>   <chr>         <dbl>
#> 1 overall       0.382

# Correlation by year
correlate_bushfire(bushfire, by_year = TRUE)
#> # A tibble: 22 × 2
#>     year correlation
#>    <dbl>       <dbl>
#>  1  1997       0.795
#>  2  1998       0.553
#>  3  1999       0.333
#>  4  2000       0.284
#>  5  2001       0.742
#>  6  2002       0.849
#>  7  2003       0.802
#>  8  2004      -0.380
#>  9  2005       0.360
#> 10  2006       0.241
#> # ℹ 12 more rows
…
